EESchema Schematic File Version 4
LIBS:3-way board-cache
EELAYER 28 0
EELAYER END
$Descr A2 23386 16535
encoding utf-8
Sheet 1 1
Title "3 way active crossover"
Date ""
Rev ""
Comp "Serban Ciprian"
Comment1 ""
Comment2 ""
Comment3 ""
Comment4 ""
$EndDescr
$Comp
L Connector_Generic:Conn_01x03 J3
U 1 1 5A8097B4
P 3050 4700
F 0 "J3" H 2970 4375 50  0000 C CNN
F 1 "15V_IN" H 2970 4466 50  0000 C CNN
F 2 "Connector_Molex:Molex_KK-254_AE-6410-03A_1x03_P2.54mm_Vertical" H 3050 4700 50  0001 C CNN
F 3 "~" H 3050 4700 50  0001 C CNN
	1    3050 4700
	-1   0    0    1   
$EndComp
Wire Wire Line
	3450 4700 3250 4700
Text GLabel 8350 4550 2    50   Input ~ 0
+15V
Text GLabel 8350 4850 2    50   Input ~ 0
-15V
$Comp
L Connector_Generic:Conn_01x02 J1
U 1 1 5A80AA76
P 7250 7350
F 0 "J1" H 7170 7025 50  0000 C CNN
F 1 "AUDIO_IN" H 7170 7116 50  0000 C CNN
F 2 "Connector_Molex:Molex_KK-254_AE-6410-02A_1x02_P2.54mm_Vertical" H 7250 7350 50  0001 C CNN
F 3 "~" H 7250 7350 50  0001 C CNN
	1    7250 7350
	-1   0    0    1   
$EndComp
$Comp
L power:GND #PWR02
U 1 1 5A80AB57
P 7550 7400
F 0 "#PWR02" H 7550 7150 50  0001 C CNN
F 1 "GND" H 7555 7227 50  0000 C CNN
F 2 "" H 7550 7400 50  0001 C CNN
F 3 "" H 7550 7400 50  0001 C CNN
	1    7550 7400
	1    0    0    -1  
$EndComp
Wire Wire Line
	7550 7400 7550 7350
Wire Wire Line
	7550 7350 7450 7350
$Comp
L Device:R R1
U 1 1 5A80B128
P 7700 7250
F 0 "R1" V 7493 7250 50  0000 C CNN
F 1 "1k" V 7584 7250 50  0000 C CNN
F 2 "Resistor_THT:R_Axial_DIN0204_L3.6mm_D1.6mm_P7.62mm_Horizontal" V 7630 7250 50  0001 C CNN
F 3 "" H 7700 7250 50  0001 C CNN
	1    7700 7250
	0    1    1    0   
$EndComp
$Comp
L Device:R R2
U 1 1 5A80B1E0
P 8100 7500
F 0 "R2" H 8030 7454 50  0000 R CNN
F 1 "100k" H 8030 7545 50  0000 R CNN
F 2 "Resistor_THT:R_Axial_DIN0204_L3.6mm_D1.6mm_P7.62mm_Horizontal" V 8030 7500 50  0001 C CNN
F 3 "" H 8100 7500 50  0001 C CNN
	1    8100 7500
	-1   0    0    1   
$EndComp
Wire Wire Line
	8100 7350 8100 7250
Wire Wire Line
	8100 7250 7850 7250
Wire Wire Line
	7550 7250 7450 7250
Wire Wire Line
	8100 7250 8550 7250
Connection ~ 8100 7250
$Comp
L power:GND #PWR04
U 1 1 5A80B4EE
P 8100 7650
F 0 "#PWR04" H 8100 7400 50  0001 C CNN
F 1 "GND" H 8105 7477 50  0000 C CNN
F 2 "" H 8100 7650 50  0001 C CNN
F 3 "" H 8100 7650 50  0001 C CNN
	1    8100 7650
	1    0    0    -1  
$EndComp
Wire Wire Line
	8550 7450 8550 7750
Wire Wire Line
	8550 7750 9200 7750
Wire Wire Line
	9200 7750 9200 7350
Wire Wire Line
	9200 7350 9150 7350
Wire Wire Line
	9350 7350 9200 7350
Connection ~ 9200 7350
$Comp
L Device:C C5
U 1 1 5A7E368E
P 3850 4700
F 0 "C5" H 3965 4746 50  0000 L CNN
F 1 "100n" H 3965 4655 50  0000 L CNN
F 2 "Capacitor_SMD:C_1206_3216Metric" H 3888 4550 50  0001 C CNN
F 3 "" H 3850 4700 50  0001 C CNN
	1    3850 4700
	1    0    0    -1  
$EndComp
Wire Wire Line
	3250 4600 3250 4550
Wire Wire Line
	3250 4800 3250 4850
Text GLabel 8750 7050 1    50   Input ~ 0
+15V
Text GLabel 8750 7850 3    50   Input ~ 0
-15V
Wire Wire Line
	8750 7850 8750 7650
$Comp
L Device:C C6
U 1 1 5A7EB183
P 9700 5000
F 0 "C6" V 9448 5000 50  0000 C CNN
F 1 "22n" V 9539 5000 50  0000 C CNN
F 2 "Capacitor_THT:C_Rect_L7.0mm_W2.5mm_P5.00mm" H 9738 4850 50  0001 C CNN
F 3 "" H 9700 5000 50  0001 C CNN
	1    9700 5000
	0    1    1    0   
$EndComp
$Comp
L Device:C C7
U 1 1 5A7EB18A
P 10100 5000
F 0 "C7" V 9848 5000 50  0000 C CNN
F 1 "22n" V 9939 5000 50  0000 C CNN
F 2 "Capacitor_THT:C_Rect_L7.0mm_W2.5mm_P5.00mm" H 10138 4850 50  0001 C CNN
F 3 "" H 10100 5000 50  0001 C CNN
	1    10100 5000
	0    1    1    0   
$EndComp
Wire Wire Line
	9950 5000 9900 5000
Wire Wire Line
	10400 5100 10400 5000
Wire Wire Line
	10400 5000 10250 5000
Wire Wire Line
	10750 5000 10400 5000
Connection ~ 10400 5000
Wire Wire Line
	9900 5000 9900 4550
Wire Wire Line
	11450 4550 11450 5100
Wire Wire Line
	11450 5100 11350 5100
Connection ~ 9900 5000
Wire Wire Line
	9900 5000 9850 5000
$Comp
L Device:R R8
U 1 1 5A7EB1A8
P 10650 4550
F 0 "R8" V 10443 4550 50  0000 C CNN
F 1 "2.2k" V 10534 4550 50  0000 C CNN
F 2 "Resistor_THT:R_Axial_DIN0204_L3.6mm_D1.6mm_P7.62mm_Horizontal" V 10580 4550 50  0001 C CNN
F 3 "" H 10650 4550 50  0001 C CNN
	1    10650 4550
	0    1    1    0   
$EndComp
Wire Wire Line
	10800 4550 11450 4550
Wire Wire Line
	10500 4550 9900 4550
Wire Wire Line
	10750 5200 10750 5550
Wire Wire Line
	10750 5550 11450 5550
Wire Wire Line
	11450 5550 11450 5100
Connection ~ 11450 5100
Wire Wire Line
	11950 5100 11900 5100
$Comp
L power:GND #PWR07
U 1 1 5A7EB1CB
P 12400 5800
F 0 "#PWR07" H 12400 5550 50  0001 C CNN
F 1 "GND" H 12405 5627 50  0000 C CNN
F 2 "" H 12400 5800 50  0001 C CNN
F 3 "" H 12400 5800 50  0001 C CNN
	1    12400 5800
	1    0    0    -1  
$EndComp
Wire Wire Line
	12400 5200 12400 5100
Wire Wire Line
	12400 5100 12250 5100
Wire Wire Line
	12750 5100 12400 5100
Connection ~ 12400 5100
Wire Wire Line
	11900 5100 11900 4650
Wire Wire Line
	13450 4650 13450 5200
Wire Wire Line
	13450 5200 13350 5200
Connection ~ 11900 5100
Wire Wire Line
	11900 5100 11850 5100
$Comp
L Device:R R10
U 1 1 5A7EB1DA
P 12650 4650
F 0 "R10" V 12443 4650 50  0000 C CNN
F 1 "2.2k" V 12534 4650 50  0000 C CNN
F 2 "Resistor_THT:R_Axial_DIN0204_L3.6mm_D1.6mm_P7.62mm_Horizontal" V 12580 4650 50  0001 C CNN
F 3 "" H 12650 4650 50  0001 C CNN
	1    12650 4650
	0    1    1    0   
$EndComp
Wire Wire Line
	12800 4650 13450 4650
Wire Wire Line
	12500 4650 11900 4650
Wire Wire Line
	12750 5300 12750 5650
Wire Wire Line
	12750 5650 13450 5650
Wire Wire Line
	13450 5650 13450 5200
Connection ~ 13450 5200
Wire Wire Line
	11550 5100 11450 5100
Wire Wire Line
	9350 7350 9350 5000
$Comp
L Amplifier_Operational:NE5534 U1
U 1 1 5A7F4E86
P 8850 7350
F 0 "U1" H 9050 7700 50  0000 L CNN
F 1 "NE5534" H 9000 7600 50  0000 L CNN
F 2 "Package_DIP:DIP-8_W7.62mm_LongPads" H 8900 7400 50  0001 C CNN
F 3 "http://www.ti.com/lit/ds/symlink/ne5534.pdf" H 8900 7500 50  0001 C CNN
	1    8850 7350
	1    0    0    -1  
$EndComp
Text Notes 8300 6500 0    50   ~ 0
INPUT BUFFER
Wire Wire Line
	9350 5000 9550 5000
$Comp
L Device:C C8
U 1 1 5A7FB5F8
P 11700 5100
F 0 "C8" V 11448 5100 50  0000 C CNN
F 1 "22n" V 11539 5100 50  0000 C CNN
F 2 "Capacitor_THT:C_Rect_L7.0mm_W2.5mm_P5.00mm" H 11738 4950 50  0001 C CNN
F 3 "" H 11700 5100 50  0001 C CNN
	1    11700 5100
	0    1    1    0   
$EndComp
$Comp
L Device:C C9
U 1 1 5A7FB66C
P 12100 5100
F 0 "C9" V 11848 5100 50  0000 C CNN
F 1 "22n" V 11939 5100 50  0000 C CNN
F 2 "Capacitor_THT:C_Rect_L7.0mm_W2.5mm_P5.00mm" H 12138 4950 50  0001 C CNN
F 3 "" H 12100 5100 50  0001 C CNN
	1    12100 5100
	0    1    1    0   
$EndComp
$Comp
L Device:R R7
U 1 1 5A7FB840
P 10400 5250
F 0 "R7" V 10193 5250 50  0000 C CNN
F 1 "2.2k" V 10284 5250 50  0000 C CNN
F 2 "Resistor_THT:R_Axial_DIN0204_L3.6mm_D1.6mm_P7.62mm_Horizontal" V 10330 5250 50  0001 C CNN
F 3 "" H 10400 5250 50  0001 C CNN
	1    10400 5250
	-1   0    0    1   
$EndComp
$Comp
L Device:R R9
U 1 1 5A7FBA9B
P 12400 5350
F 0 "R9" V 12193 5350 50  0000 C CNN
F 1 "2.2k" V 12284 5350 50  0000 C CNN
F 2 "Resistor_THT:R_Axial_DIN0204_L3.6mm_D1.6mm_P7.62mm_Horizontal" V 12330 5350 50  0001 C CNN
F 3 "" H 12400 5350 50  0001 C CNN
	1    12400 5350
	-1   0    0    1   
$EndComp
$Comp
L Amplifier_Operational:NE5534 U4
U 1 1 5A7FE27A
P 15050 4950
F 0 "U4" H 15250 5300 50  0000 L CNN
F 1 "NE5534" H 15200 5200 50  0000 L CNN
F 2 "Package_DIP:DIP-8_W7.62mm_LongPads" H 15100 5000 50  0001 C CNN
F 3 "http://www.ti.com/lit/ds/symlink/ne5534.pdf" H 15100 5100 50  0001 C CNN
	1    15050 4950
	1    0    0    -1  
$EndComp
$Comp
L Device:R_POT RV1
U 1 1 5A7FE3DB
P 13950 5500
F 0 "RV1" H 13880 5546 50  0000 R CNN
F 1 "20k" H 13880 5455 50  0000 R CNN
F 2 "Potentiometers:Potentiometer_Trimmer_Bourns_3296W" H 13950 5500 50  0001 C CNN
F 3 "" H 13950 5500 50  0001 C CNN
	1    13950 5500
	1    0    0    -1  
$EndComp
$Comp
L Device:R R11
U 1 1 5A7FE7EF
P 14250 5800
F 0 "R11" H 14320 5846 50  0000 L CNN
F 1 "10k" H 14320 5755 50  0000 L CNN
F 2 "Resistor_THT:R_Axial_DIN0204_L3.6mm_D1.6mm_P7.62mm_Horizontal" V 14180 5800 50  0001 C CNN
F 3 "" H 14250 5800 50  0001 C CNN
	1    14250 5800
	1    0    0    -1  
$EndComp
$Comp
L Device:R R12
U 1 1 5A7FEA6D
P 14600 5800
F 0 "R12" H 14670 5846 50  0000 L CNN
F 1 "10k" H 14670 5755 50  0000 L CNN
F 2 "Resistor_THT:R_Axial_DIN0204_L3.6mm_D1.6mm_P7.62mm_Horizontal" V 14530 5800 50  0001 C CNN
F 3 "" H 14600 5800 50  0001 C CNN
	1    14600 5800
	1    0    0    -1  
$EndComp
$Comp
L Device:R R13
U 1 1 5A7FEB40
P 15050 5600
F 0 "R13" V 14850 5650 50  0000 C CNN
F 1 "10k" V 14950 5650 50  0000 C CNN
F 2 "Resistor_THT:R_Axial_DIN0204_L3.6mm_D1.6mm_P7.62mm_Horizontal" V 14980 5600 50  0001 C CNN
F 3 "" H 15050 5600 50  0001 C CNN
	1    15050 5600
	0    1    1    0   
$EndComp
$Comp
L Device:R R14
U 1 1 5A7FEC92
P 15650 4950
F 0 "R14" V 15443 4950 50  0000 C CNN
F 1 "100" V 15534 4950 50  0000 C CNN
F 2 "Resistor_THT:R_Axial_DIN0204_L3.6mm_D1.6mm_P7.62mm_Horizontal" V 15580 4950 50  0001 C CNN
F 3 "" H 15650 4950 50  0001 C CNN
	1    15650 4950
	0    1    1    0   
$EndComp
Wire Wire Line
	15500 4950 15450 4950
Wire Wire Line
	15200 5600 15450 5600
Wire Wire Line
	15450 5600 15450 4950
Connection ~ 15450 4950
Wire Wire Line
	15450 4950 15350 4950
Wire Wire Line
	14600 5600 14600 5650
Wire Wire Line
	14600 5600 14900 5600
Wire Wire Line
	14600 5600 14600 5050
Wire Wire Line
	14600 5050 14750 5050
Connection ~ 14600 5600
$Comp
L power:GND #PWR08
U 1 1 5A807456
P 14250 6150
F 0 "#PWR08" H 14250 5900 50  0001 C CNN
F 1 "GND" H 14255 5977 50  0000 C CNN
F 2 "" H 14250 6150 50  0001 C CNN
F 3 "" H 14250 6150 50  0001 C CNN
	1    14250 6150
	1    0    0    -1  
$EndComp
Wire Wire Line
	14250 6150 14250 6050
Wire Wire Line
	14600 5950 14600 6050
Wire Wire Line
	14600 6050 14250 6050
Connection ~ 14250 6050
Wire Wire Line
	14250 6050 14250 5950
Wire Wire Line
	14250 5650 14250 5500
Wire Wire Line
	14250 4850 14750 4850
Wire Wire Line
	13950 5200 13950 5350
Wire Wire Line
	13450 5200 13950 5200
Wire Wire Line
	13950 5650 13950 6050
Wire Wire Line
	13950 6050 14250 6050
Wire Wire Line
	14100 5500 14250 5500
Connection ~ 14250 5500
Wire Wire Line
	14250 5500 14250 4850
Text GLabel 5500 9250 1    50   Input ~ 0
+15V
Text Notes 11500 4200 0    50   ~ 0
2.5KHZ HIGH PASS
$Comp
L Device:C C10
U 1 1 5A81704B
P 4250 4700
F 0 "C10" H 4365 4746 50  0000 L CNN
F 1 "100n" H 4365 4655 50  0000 L CNN
F 2 "Capacitor_SMD:C_1206_3216Metric" H 4288 4550 50  0001 C CNN
F 3 "" H 4250 4700 50  0001 C CNN
	1    4250 4700
	1    0    0    -1  
$EndComp
$Comp
L Device:C C11
U 1 1 5A8170C1
P 4650 4700
F 0 "C11" H 4765 4746 50  0000 L CNN
F 1 "100n" H 4765 4655 50  0000 L CNN
F 2 "Capacitor_SMD:C_1206_3216Metric" H 4688 4550 50  0001 C CNN
F 3 "" H 4650 4700 50  0001 C CNN
	1    4650 4700
	1    0    0    -1  
$EndComp
$Comp
L Device:C C12
U 1 1 5A817127
P 5050 4700
F 0 "C12" H 5165 4746 50  0000 L CNN
F 1 "100n" H 5165 4655 50  0000 L CNN
F 2 "Capacitor_SMD:C_1206_3216Metric" H 5088 4550 50  0001 C CNN
F 3 "" H 5050 4700 50  0001 C CNN
	1    5050 4700
	1    0    0    -1  
$EndComp
Wire Wire Line
	10050 7350 10000 7350
Wire Wire Line
	9650 7350 9350 7350
$Comp
L Device:R R15
U 1 1 5A7ED570
P 9800 7350
F 0 "R15" V 9593 7350 50  0000 C CNN
F 1 "2.2k" V 9684 7350 50  0000 C CNN
F 2 "Resistor_THT:R_Axial_DIN0204_L3.6mm_D1.6mm_P7.62mm_Horizontal" V 9730 7350 50  0001 C CNN
F 3 "" H 9800 7350 50  0001 C CNN
	1    9800 7350
	0    -1   -1   0   
$EndComp
$Comp
L Device:C C15
U 1 1 5A7ED6E6
P 10550 7700
F 0 "C15" V 10298 7700 50  0000 C CNN
F 1 "22n" V 10389 7700 50  0000 C CNN
F 2 "Capacitor_THT:C_Rect_L7.0mm_W2.5mm_P5.00mm" H 10588 7550 50  0001 C CNN
F 3 "" H 10550 7700 50  0001 C CNN
	1    10550 7700
	-1   0    0    1   
$EndComp
$Comp
L Device:R R16
U 1 1 5A7ED9EC
P 10200 7350
F 0 "R16" V 9993 7350 50  0000 C CNN
F 1 "2.2k" V 10084 7350 50  0000 C CNN
F 2 "Resistor_THT:R_Axial_DIN0204_L3.6mm_D1.6mm_P7.62mm_Horizontal" V 10130 7350 50  0001 C CNN
F 3 "" H 10200 7350 50  0001 C CNN
	1    10200 7350
	0    -1   -1   0   
$EndComp
Wire Wire Line
	10550 7550 10550 7350
Wire Wire Line
	10550 7350 10350 7350
$Comp
L power:GND #PWR09
U 1 1 5A7F0BB6
P 10550 7850
F 0 "#PWR09" H 10550 7600 50  0001 C CNN
F 1 "GND" H 10555 7677 50  0000 C CNN
F 2 "" H 10550 7850 50  0001 C CNN
F 3 "" H 10550 7850 50  0001 C CNN
	1    10550 7850
	1    0    0    -1  
$EndComp
$Comp
L Amplifier_Operational:NE5532 U5
U 1 1 5A7F0D95
P 11200 7450
F 0 "U5" H 11350 7850 50  0000 L CNN
F 1 "NE5532" H 11250 7700 50  0000 L CNN
F 2 "Package_DIP:DIP-8_W7.62mm_LongPads" H 11200 7450 50  0001 C CNN
F 3 "http://www.ti.com/lit/ds/symlink/ne5532.pdf" H 11200 7450 50  0001 C CNN
	1    11200 7450
	1    0    0    -1  
$EndComp
Wire Wire Line
	10900 7350 10550 7350
Connection ~ 10550 7350
$Comp
L Device:C C14
U 1 1 5A7F3F30
P 10550 7000
F 0 "C14" V 10298 7000 50  0000 C CNN
F 1 "22n" V 10389 7000 50  0000 C CNN
F 2 "Capacitor_THT:C_Rect_L7.0mm_W2.5mm_P5.00mm" H 10588 6850 50  0001 C CNN
F 3 "" H 10550 7000 50  0001 C CNN
	1    10550 7000
	0    -1   -1   0   
$EndComp
$Comp
L Device:C C13
U 1 1 5A7F3FE5
P 10550 6800
F 0 "C13" V 10800 6800 50  0000 C CNN
F 1 "22n" V 10700 6800 50  0000 C CNN
F 2 "Capacitor_THT:C_Rect_L7.0mm_W2.5mm_P5.00mm" H 10588 6650 50  0001 C CNN
F 3 "" H 10550 6800 50  0001 C CNN
	1    10550 6800
	0    -1   -1   0   
$EndComp
Wire Wire Line
	10400 6800 10400 6900
Wire Wire Line
	10700 6800 10700 6900
Wire Wire Line
	10400 6900 10000 6900
Wire Wire Line
	10000 6900 10000 7350
Connection ~ 10400 6900
Wire Wire Line
	10400 6900 10400 7000
Connection ~ 10000 7350
Wire Wire Line
	10000 7350 9950 7350
Wire Wire Line
	10700 6900 11600 6900
Wire Wire Line
	11600 6900 11600 7450
Wire Wire Line
	11600 7450 11500 7450
Connection ~ 10700 6900
Wire Wire Line
	10700 6900 10700 7000
Wire Wire Line
	10900 7550 10900 7800
Wire Wire Line
	10900 7800 11600 7800
Wire Wire Line
	11600 7800 11600 7450
Connection ~ 11600 7450
Wire Wire Line
	12150 7450 12100 7450
$Comp
L Device:R R17
U 1 1 5A814C41
P 11900 7450
F 0 "R17" V 11693 7450 50  0000 C CNN
F 1 "2.2k" V 11784 7450 50  0000 C CNN
F 2 "Resistor_THT:R_Axial_DIN0204_L3.6mm_D1.6mm_P7.62mm_Horizontal" V 11830 7450 50  0001 C CNN
F 3 "" H 11900 7450 50  0001 C CNN
	1    11900 7450
	0    -1   -1   0   
$EndComp
$Comp
L Device:C C18
U 1 1 5A814C48
P 12650 7800
F 0 "C18" V 12398 7800 50  0000 C CNN
F 1 "22n" V 12489 7800 50  0000 C CNN
F 2 "Capacitor_THT:C_Rect_L7.0mm_W2.5mm_P5.00mm" H 12688 7650 50  0001 C CNN
F 3 "" H 12650 7800 50  0001 C CNN
	1    12650 7800
	-1   0    0    1   
$EndComp
$Comp
L Device:R R18
U 1 1 5A814C4F
P 12300 7450
F 0 "R18" V 12093 7450 50  0000 C CNN
F 1 "2.2k" V 12184 7450 50  0000 C CNN
F 2 "Resistor_THT:R_Axial_DIN0204_L3.6mm_D1.6mm_P7.62mm_Horizontal" V 12230 7450 50  0001 C CNN
F 3 "" H 12300 7450 50  0001 C CNN
	1    12300 7450
	0    -1   -1   0   
$EndComp
Wire Wire Line
	12650 7650 12650 7450
Wire Wire Line
	12650 7450 12450 7450
$Comp
L power:GND #PWR010
U 1 1 5A814C58
P 12650 7950
F 0 "#PWR010" H 12650 7700 50  0001 C CNN
F 1 "GND" H 12655 7777 50  0000 C CNN
F 2 "" H 12650 7950 50  0001 C CNN
F 3 "" H 12650 7950 50  0001 C CNN
	1    12650 7950
	1    0    0    -1  
$EndComp
$Comp
L Amplifier_Operational:NE5532 U5
U 2 1 5A814C5E
P 13300 7550
F 0 "U5" H 13450 7950 50  0000 L CNN
F 1 "NE5532" H 13350 7800 50  0000 L CNN
F 2 "Package_DIP:DIP-8_W7.62mm_LongPads" H 13300 7550 50  0001 C CNN
F 3 "http://www.ti.com/lit/ds/symlink/ne5532.pdf" H 13300 7550 50  0001 C CNN
	2    13300 7550
	1    0    0    -1  
$EndComp
Wire Wire Line
	13000 7450 12650 7450
Connection ~ 12650 7450
$Comp
L Device:C C17
U 1 1 5A814C67
P 12650 7100
F 0 "C17" V 12398 7100 50  0000 C CNN
F 1 "22n" V 12489 7100 50  0000 C CNN
F 2 "Capacitor_THT:C_Rect_L7.0mm_W2.5mm_P5.00mm" H 12688 6950 50  0001 C CNN
F 3 "" H 12650 7100 50  0001 C CNN
	1    12650 7100
	0    -1   -1   0   
$EndComp
$Comp
L Device:C C16
U 1 1 5A814C6E
P 12650 6900
F 0 "C16" V 12900 6900 50  0000 C CNN
F 1 "22n" V 12800 6900 50  0000 C CNN
F 2 "Capacitor_THT:C_Rect_L7.0mm_W2.5mm_P5.00mm" H 12688 6750 50  0001 C CNN
F 3 "" H 12650 6900 50  0001 C CNN
	1    12650 6900
	0    -1   -1   0   
$EndComp
Wire Wire Line
	12500 6900 12500 7000
Wire Wire Line
	12800 6900 12800 7000
Wire Wire Line
	12500 7000 12100 7000
Wire Wire Line
	12100 7000 12100 7450
Connection ~ 12500 7000
Wire Wire Line
	12500 7000 12500 7100
Connection ~ 12100 7450
Wire Wire Line
	12100 7450 12050 7450
Wire Wire Line
	12800 7000 13700 7000
Wire Wire Line
	13700 7000 13700 7550
Wire Wire Line
	13700 7550 13600 7550
Connection ~ 12800 7000
Wire Wire Line
	12800 7000 12800 7100
Wire Wire Line
	13000 7650 13000 7900
Wire Wire Line
	13000 7900 13700 7900
Wire Wire Line
	13700 7900 13700 7550
Connection ~ 13700 7550
Wire Wire Line
	11750 7450 11600 7450
$Comp
L Device:C C19
U 1 1 5A825B6B
P 14600 7450
F 0 "C19" V 14348 7450 50  0000 C CNN
F 1 "100n" V 14439 7450 50  0000 C CNN
F 2 "Capacitor_THT:C_Rect_L7.0mm_W2.5mm_P5.00mm" H 14638 7300 50  0001 C CNN
F 3 "" H 14600 7450 50  0001 C CNN
	1    14600 7450
	0    1    1    0   
$EndComp
$Comp
L Device:C C20
U 1 1 5A825B72
P 15000 7450
F 0 "C20" V 14748 7450 50  0000 C CNN
F 1 "100n" V 14839 7450 50  0000 C CNN
F 2 "Capacitor_THT:C_Rect_L7.0mm_W2.5mm_P5.00mm" H 15038 7300 50  0001 C CNN
F 3 "" H 15000 7450 50  0001 C CNN
	1    15000 7450
	0    1    1    0   
$EndComp
Wire Wire Line
	14850 7450 14800 7450
$Comp
L power:GND #PWR011
U 1 1 5A825B7A
P 15300 8150
F 0 "#PWR011" H 15300 7900 50  0001 C CNN
F 1 "GND" H 15305 7977 50  0000 C CNN
F 2 "" H 15300 8150 50  0001 C CNN
F 3 "" H 15300 8150 50  0001 C CNN
	1    15300 8150
	1    0    0    -1  
$EndComp
Wire Wire Line
	15300 7550 15300 7450
Wire Wire Line
	15300 7450 15150 7450
Wire Wire Line
	15650 7450 15300 7450
Connection ~ 15300 7450
Wire Wire Line
	14800 7450 14800 7000
Wire Wire Line
	16350 7000 16350 7550
Wire Wire Line
	16350 7550 16250 7550
Connection ~ 14800 7450
Wire Wire Line
	14800 7450 14750 7450
$Comp
L Device:R R22
U 1 1 5A825B89
P 15550 7000
F 0 "R22" V 15343 7000 50  0000 C CNN
F 1 "12k" V 15434 7000 50  0000 C CNN
F 2 "Resistor_THT:R_Axial_DIN0204_L3.6mm_D1.6mm_P7.62mm_Horizontal" V 15480 7000 50  0001 C CNN
F 3 "" H 15550 7000 50  0001 C CNN
	1    15550 7000
	0    1    1    0   
$EndComp
Wire Wire Line
	15700 7000 16350 7000
Wire Wire Line
	15400 7000 14800 7000
Wire Wire Line
	15650 7650 15650 8000
Wire Wire Line
	15650 8000 16350 8000
Wire Wire Line
	16350 8000 16350 7550
Connection ~ 16350 7550
Wire Wire Line
	16850 7550 16800 7550
$Comp
L power:GND #PWR013
U 1 1 5A825B97
P 17300 8250
F 0 "#PWR013" H 17300 8000 50  0001 C CNN
F 1 "GND" H 17305 8077 50  0000 C CNN
F 2 "" H 17300 8250 50  0001 C CNN
F 3 "" H 17300 8250 50  0001 C CNN
	1    17300 8250
	1    0    0    -1  
$EndComp
Wire Wire Line
	17300 7650 17300 7550
Wire Wire Line
	17300 7550 17150 7550
Wire Wire Line
	17650 7550 17300 7550
Connection ~ 17300 7550
Wire Wire Line
	16800 7550 16800 7100
Wire Wire Line
	18350 7100 18350 7650
Wire Wire Line
	18350 7650 18250 7650
Connection ~ 16800 7550
Wire Wire Line
	16800 7550 16750 7550
$Comp
L Device:R R26
U 1 1 5A825BA6
P 17550 7100
F 0 "R26" V 17343 7100 50  0000 C CNN
F 1 "12k" V 17434 7100 50  0000 C CNN
F 2 "Resistor_THT:R_Axial_DIN0204_L3.6mm_D1.6mm_P7.62mm_Horizontal" V 17480 7100 50  0001 C CNN
F 3 "" H 17550 7100 50  0001 C CNN
	1    17550 7100
	0    1    1    0   
$EndComp
Wire Wire Line
	17700 7100 18350 7100
Wire Wire Line
	17400 7100 16800 7100
Wire Wire Line
	17650 7750 17650 8100
Wire Wire Line
	17650 8100 18350 8100
Wire Wire Line
	18350 8100 18350 7650
Connection ~ 18350 7650
Wire Wire Line
	16450 7550 16350 7550
$Comp
L Device:C C24
U 1 1 5A825BB4
P 16600 7550
F 0 "C24" V 16348 7550 50  0000 C CNN
F 1 "100n" V 16439 7550 50  0000 C CNN
F 2 "Capacitor_THT:C_Rect_L7.0mm_W2.5mm_P5.00mm" H 16638 7400 50  0001 C CNN
F 3 "" H 16600 7550 50  0001 C CNN
	1    16600 7550
	0    1    1    0   
$EndComp
$Comp
L Device:C C25
U 1 1 5A825BBB
P 17000 7550
F 0 "C25" V 16748 7550 50  0000 C CNN
F 1 "100n" V 16839 7550 50  0000 C CNN
F 2 "Capacitor_THT:C_Rect_L7.0mm_W2.5mm_P5.00mm" H 17038 7400 50  0001 C CNN
F 3 "" H 17000 7550 50  0001 C CNN
	1    17000 7550
	0    1    1    0   
$EndComp
$Comp
L Device:R R21
U 1 1 5A825BC2
P 15300 7700
F 0 "R21" V 15093 7700 50  0000 C CNN
F 1 "12k" V 15184 7700 50  0000 C CNN
F 2 "Resistor_THT:R_Axial_DIN0204_L3.6mm_D1.6mm_P7.62mm_Horizontal" V 15230 7700 50  0001 C CNN
F 3 "" H 15300 7700 50  0001 C CNN
	1    15300 7700
	-1   0    0    1   
$EndComp
$Comp
L Device:R R25
U 1 1 5A825BC9
P 17300 7800
F 0 "R25" V 17093 7800 50  0000 C CNN
F 1 "12k" V 17184 7800 50  0000 C CNN
F 2 "Resistor_THT:R_Axial_DIN0204_L3.6mm_D1.6mm_P7.62mm_Horizontal" V 17230 7800 50  0001 C CNN
F 3 "" H 17300 7800 50  0001 C CNN
	1    17300 7800
	-1   0    0    1   
$EndComp
$Comp
L Amplifier_Operational:NE5532 U6
U 1 1 5A825BD0
P 15950 7550
F 0 "U6" H 16100 7950 50  0000 L CNN
F 1 "NE5532" H 16000 7800 50  0000 L CNN
F 2 "Package_DIP:DIP-8_W7.62mm_LongPads" H 15950 7550 50  0001 C CNN
F 3 "http://www.ti.com/lit/ds/symlink/ne5532.pdf" H 15950 7550 50  0001 C CNN
	1    15950 7550
	1    0    0    -1  
$EndComp
$Comp
L Amplifier_Operational:NE5532 U7
U 1 1 5A825BD7
P 15350 9900
F 0 "U7" H 15500 10350 50  0000 L CNN
F 1 "NE5532" H 15350 10250 50  0000 L CNN
F 2 "Package_DIP:DIP-8_W7.62mm_LongPads" H 15350 9900 50  0001 C CNN
F 3 "http://www.ti.com/lit/ds/symlink/ne5532.pdf" H 15350 9900 50  0001 C CNN
	1    15350 9900
	1    0    0    -1  
$EndComp
$Comp
L Amplifier_Operational:NE5534 U8
U 1 1 5A825BDE
P 20400 7500
F 0 "U8" H 20600 7850 50  0000 L CNN
F 1 "NE5534" H 20550 7750 50  0000 L CNN
F 2 "Package_DIP:DIP-8_W7.62mm_LongPads" H 20450 7550 50  0001 C CNN
F 3 "http://www.ti.com/lit/ds/symlink/ne5534.pdf" H 20450 7650 50  0001 C CNN
	1    20400 7500
	1    0    0    -1  
$EndComp
$Comp
L Device:R_POT RV2
U 1 1 5A825BE5
P 19300 8050
F 0 "RV2" H 19230 8096 50  0000 R CNN
F 1 "20k" H 19230 8005 50  0000 R CNN
F 2 "Potentiometers:Potentiometer_Trimmer_Bourns_3296W" H 19300 8050 50  0001 C CNN
F 3 "" H 19300 8050 50  0001 C CNN
	1    19300 8050
	1    0    0    -1  
$EndComp
$Comp
L Device:R R27
U 1 1 5A825BEC
P 19600 8350
F 0 "R27" H 19670 8396 50  0000 L CNN
F 1 "10k" H 19670 8305 50  0000 L CNN
F 2 "Resistor_THT:R_Axial_DIN0204_L3.6mm_D1.6mm_P7.62mm_Horizontal" V 19530 8350 50  0001 C CNN
F 3 "" H 19600 8350 50  0001 C CNN
	1    19600 8350
	1    0    0    -1  
$EndComp
$Comp
L Device:R R29
U 1 1 5A825BF3
P 19950 8350
F 0 "R29" H 20020 8396 50  0000 L CNN
F 1 "10k" H 20020 8305 50  0000 L CNN
F 2 "Resistor_THT:R_Axial_DIN0204_L3.6mm_D1.6mm_P7.62mm_Horizontal" V 19880 8350 50  0001 C CNN
F 3 "" H 19950 8350 50  0001 C CNN
	1    19950 8350
	1    0    0    -1  
$EndComp
$Comp
L Device:R R31
U 1 1 5A825BFA
P 20400 8150
F 0 "R31" V 20193 8150 50  0000 C CNN
F 1 "10k" V 20284 8150 50  0000 C CNN
F 2 "Resistor_THT:R_Axial_DIN0204_L3.6mm_D1.6mm_P7.62mm_Horizontal" V 20330 8150 50  0001 C CNN
F 3 "" H 20400 8150 50  0001 C CNN
	1    20400 8150
	0    1    1    0   
$EndComp
$Comp
L Device:R R33
U 1 1 5A825C01
P 21000 7500
F 0 "R33" V 20793 7500 50  0000 C CNN
F 1 "100" V 20884 7500 50  0000 C CNN
F 2 "Resistor_THT:R_Axial_DIN0204_L3.6mm_D1.6mm_P7.62mm_Horizontal" V 20930 7500 50  0001 C CNN
F 3 "" H 21000 7500 50  0001 C CNN
	1    21000 7500
	0    1    1    0   
$EndComp
Wire Wire Line
	20850 7500 20800 7500
Wire Wire Line
	20550 8150 20800 8150
Wire Wire Line
	20800 8150 20800 7500
Connection ~ 20800 7500
Wire Wire Line
	20800 7500 20700 7500
Wire Wire Line
	19950 8150 19950 8200
Wire Wire Line
	19950 8150 20250 8150
Wire Wire Line
	19950 8150 19950 7600
Wire Wire Line
	19950 7600 20100 7600
Connection ~ 19950 8150
$Comp
L power:GND #PWR015
U 1 1 5A825C12
P 19600 8700
F 0 "#PWR015" H 19600 8450 50  0001 C CNN
F 1 "GND" H 19605 8527 50  0000 C CNN
F 2 "" H 19600 8700 50  0001 C CNN
F 3 "" H 19600 8700 50  0001 C CNN
	1    19600 8700
	1    0    0    -1  
$EndComp
Wire Wire Line
	19600 8700 19600 8600
Wire Wire Line
	19950 8500 19950 8600
Wire Wire Line
	19950 8600 19600 8600
Connection ~ 19600 8600
Wire Wire Line
	19600 8600 19600 8500
Wire Wire Line
	19600 8200 19600 8050
Wire Wire Line
	19600 7400 20100 7400
Wire Wire Line
	19300 7750 19300 7900
Wire Wire Line
	19300 8200 19300 8600
Wire Wire Line
	19300 8600 19600 8600
Wire Wire Line
	19450 8050 19600 8050
Connection ~ 19600 8050
Wire Wire Line
	19600 8050 19600 7400
Text GLabel 20300 7200 1    50   Input ~ 0
+15V
Text GLabel 20300 7800 3    50   Input ~ 0
-15V
Wire Wire Line
	14200 9800 14150 9800
$Comp
L Device:R R19
U 1 1 5A83A51E
P 13950 9800
F 0 "R19" V 13743 9800 50  0000 C CNN
F 1 "12k" V 13834 9800 50  0000 C CNN
F 2 "Resistor_THT:R_Axial_DIN0204_L3.6mm_D1.6mm_P7.62mm_Horizontal" V 13880 9800 50  0001 C CNN
F 3 "" H 13950 9800 50  0001 C CNN
	1    13950 9800
	0    -1   -1   0   
$EndComp
$Comp
L Device:C C23
U 1 1 5A83A525
P 14700 10150
F 0 "C23" V 14448 10150 50  0000 C CNN
F 1 "100n" V 14539 10150 50  0000 C CNN
F 2 "Capacitor_THT:C_Rect_L7.0mm_W2.5mm_P5.00mm" H 14738 10000 50  0001 C CNN
F 3 "" H 14700 10150 50  0001 C CNN
	1    14700 10150
	-1   0    0    1   
$EndComp
$Comp
L Device:R R20
U 1 1 5A83A52C
P 14350 9800
F 0 "R20" V 14143 9800 50  0000 C CNN
F 1 "12k" V 14234 9800 50  0000 C CNN
F 2 "Resistor_THT:R_Axial_DIN0204_L3.6mm_D1.6mm_P7.62mm_Horizontal" V 14280 9800 50  0001 C CNN
F 3 "" H 14350 9800 50  0001 C CNN
	1    14350 9800
	0    -1   -1   0   
$EndComp
Wire Wire Line
	14700 10000 14700 9800
Wire Wire Line
	14700 9800 14500 9800
$Comp
L power:GND #PWR012
U 1 1 5A83A535
P 14700 10300
F 0 "#PWR012" H 14700 10050 50  0001 C CNN
F 1 "GND" H 14705 10127 50  0000 C CNN
F 2 "" H 14700 10300 50  0001 C CNN
F 3 "" H 14700 10300 50  0001 C CNN
	1    14700 10300
	1    0    0    -1  
$EndComp
$Comp
L Amplifier_Operational:NE5532 U6
U 2 1 5A83A53B
P 17950 7650
F 0 "U6" H 18100 8050 50  0000 L CNN
F 1 "NE5532" H 18000 7900 50  0000 L CNN
F 2 "Package_DIP:DIP-8_W7.62mm_LongPads" H 17950 7650 50  0001 C CNN
F 3 "http://www.ti.com/lit/ds/symlink/ne5532.pdf" H 17950 7650 50  0001 C CNN
	2    17950 7650
	1    0    0    -1  
$EndComp
Wire Wire Line
	15050 9800 14700 9800
Connection ~ 14700 9800
$Comp
L Device:C C22
U 1 1 5A83A544
P 14700 9450
F 0 "C22" V 14448 9450 50  0000 C CNN
F 1 "100n" V 14539 9450 50  0000 C CNN
F 2 "Capacitor_THT:C_Rect_L7.0mm_W2.5mm_P5.00mm" H 14738 9300 50  0001 C CNN
F 3 "" H 14700 9450 50  0001 C CNN
	1    14700 9450
	0    -1   -1   0   
$EndComp
$Comp
L Device:C C21
U 1 1 5A83A54B
P 14700 9250
F 0 "C21" V 14950 9250 50  0000 C CNN
F 1 "100n" V 14850 9250 50  0000 C CNN
F 2 "Capacitor_THT:C_Rect_L7.0mm_W2.5mm_P5.00mm" H 14738 9100 50  0001 C CNN
F 3 "" H 14700 9250 50  0001 C CNN
	1    14700 9250
	0    -1   -1   0   
$EndComp
Wire Wire Line
	14550 9250 14550 9350
Wire Wire Line
	14850 9250 14850 9350
Wire Wire Line
	14550 9350 14150 9350
Wire Wire Line
	14150 9350 14150 9800
Connection ~ 14550 9350
Wire Wire Line
	14550 9350 14550 9450
Connection ~ 14150 9800
Wire Wire Line
	14150 9800 14100 9800
Wire Wire Line
	14850 9350 15750 9350
Wire Wire Line
	15750 9350 15750 9900
Wire Wire Line
	15750 9900 15650 9900
Connection ~ 14850 9350
Wire Wire Line
	14850 9350 14850 9450
Wire Wire Line
	15050 10000 15050 10250
Wire Wire Line
	15050 10250 15750 10250
Wire Wire Line
	15750 10250 15750 9900
Connection ~ 15750 9900
Wire Wire Line
	16300 9900 16250 9900
$Comp
L Device:R R23
U 1 1 5A83A564
P 16050 9900
F 0 "R23" V 15843 9900 50  0000 C CNN
F 1 "12k" V 15934 9900 50  0000 C CNN
F 2 "Resistor_THT:R_Axial_DIN0204_L3.6mm_D1.6mm_P7.62mm_Horizontal" V 15980 9900 50  0001 C CNN
F 3 "" H 16050 9900 50  0001 C CNN
	1    16050 9900
	0    -1   -1   0   
$EndComp
$Comp
L Device:C C28
U 1 1 5A83A56B
P 16800 10250
F 0 "C28" V 16548 10250 50  0000 C CNN
F 1 "100n" V 16639 10250 50  0000 C CNN
F 2 "Capacitor_THT:C_Rect_L7.0mm_W2.5mm_P5.00mm" H 16838 10100 50  0001 C CNN
F 3 "" H 16800 10250 50  0001 C CNN
	1    16800 10250
	-1   0    0    1   
$EndComp
$Comp
L Device:R R24
U 1 1 5A83A572
P 16450 9900
F 0 "R24" V 16243 9900 50  0000 C CNN
F 1 "12k" V 16334 9900 50  0000 C CNN
F 2 "Resistor_THT:R_Axial_DIN0204_L3.6mm_D1.6mm_P7.62mm_Horizontal" V 16380 9900 50  0001 C CNN
F 3 "" H 16450 9900 50  0001 C CNN
	1    16450 9900
	0    -1   -1   0   
$EndComp
Wire Wire Line
	16800 10100 16800 9900
Wire Wire Line
	16800 9900 16600 9900
$Comp
L power:GND #PWR014
U 1 1 5A83A57B
P 16800 10400
F 0 "#PWR014" H 16800 10150 50  0001 C CNN
F 1 "GND" H 16805 10227 50  0000 C CNN
F 2 "" H 16800 10400 50  0001 C CNN
F 3 "" H 16800 10400 50  0001 C CNN
	1    16800 10400
	1    0    0    -1  
$EndComp
$Comp
L Amplifier_Operational:NE5532 U7
U 2 1 5A83A581
P 17450 10000
F 0 "U7" H 17600 10400 50  0000 L CNN
F 1 "NE5532" H 17500 10250 50  0000 L CNN
F 2 "Package_DIP:DIP-8_W7.62mm_LongPads" H 17450 10000 50  0001 C CNN
F 3 "http://www.ti.com/lit/ds/symlink/ne5532.pdf" H 17450 10000 50  0001 C CNN
	2    17450 10000
	1    0    0    -1  
$EndComp
Wire Wire Line
	17150 9900 16800 9900
Connection ~ 16800 9900
$Comp
L Device:C C27
U 1 1 5A83A58A
P 16800 9550
F 0 "C27" V 16548 9550 50  0000 C CNN
F 1 "100n" V 16639 9550 50  0000 C CNN
F 2 "Capacitor_THT:C_Rect_L7.0mm_W2.5mm_P5.00mm" H 16838 9400 50  0001 C CNN
F 3 "" H 16800 9550 50  0001 C CNN
	1    16800 9550
	0    -1   -1   0   
$EndComp
$Comp
L Device:C C26
U 1 1 5A83A591
P 16800 9350
F 0 "C26" V 17050 9350 50  0000 C CNN
F 1 "100n" V 16950 9350 50  0000 C CNN
F 2 "Capacitor_THT:C_Rect_L7.0mm_W2.5mm_P5.00mm" H 16838 9200 50  0001 C CNN
F 3 "" H 16800 9350 50  0001 C CNN
	1    16800 9350
	0    -1   -1   0   
$EndComp
Wire Wire Line
	16650 9350 16650 9450
Wire Wire Line
	16950 9350 16950 9450
Wire Wire Line
	16650 9450 16250 9450
Wire Wire Line
	16250 9450 16250 9900
Connection ~ 16650 9450
Wire Wire Line
	16650 9450 16650 9550
Connection ~ 16250 9900
Wire Wire Line
	16250 9900 16200 9900
Wire Wire Line
	16950 9450 17850 9450
Wire Wire Line
	17850 9450 17850 10000
Wire Wire Line
	17850 10000 17750 10000
Connection ~ 16950 9450
Wire Wire Line
	16950 9450 16950 9550
Wire Wire Line
	17150 10100 17150 10350
Wire Wire Line
	17150 10350 17850 10350
Wire Wire Line
	17850 10350 17850 10000
Connection ~ 17850 10000
Wire Wire Line
	15900 9900 15750 9900
$Comp
L Amplifier_Operational:NE5534 U9
U 1 1 5A852E43
P 19500 9750
F 0 "U9" H 19700 10100 50  0000 L CNN
F 1 "NE5534" H 19650 10000 50  0000 L CNN
F 2 "Package_DIP:DIP-8_W7.62mm_LongPads" H 19550 9800 50  0001 C CNN
F 3 "http://www.ti.com/lit/ds/symlink/ne5534.pdf" H 19550 9900 50  0001 C CNN
	1    19500 9750
	1    0    0    -1  
$EndComp
$Comp
L Device:R_POT RV3
U 1 1 5A852E4A
P 18400 10300
F 0 "RV3" H 18330 10346 50  0000 R CNN
F 1 "20k" H 18330 10255 50  0000 R CNN
F 2 "Potentiometers:Potentiometer_Trimmer_Bourns_3296W" H 18400 10300 50  0001 C CNN
F 3 "" H 18400 10300 50  0001 C CNN
	1    18400 10300
	1    0    0    -1  
$EndComp
$Comp
L Device:R R28
U 1 1 5A852E51
P 18700 10600
F 0 "R28" H 18770 10646 50  0000 L CNN
F 1 "10k" H 18770 10555 50  0000 L CNN
F 2 "Resistor_THT:R_Axial_DIN0204_L3.6mm_D1.6mm_P7.62mm_Horizontal" V 18630 10600 50  0001 C CNN
F 3 "" H 18700 10600 50  0001 C CNN
	1    18700 10600
	1    0    0    -1  
$EndComp
$Comp
L Device:R R30
U 1 1 5A852E58
P 19050 10600
F 0 "R30" H 19120 10646 50  0000 L CNN
F 1 "10k" H 19120 10555 50  0000 L CNN
F 2 "Resistor_THT:R_Axial_DIN0204_L3.6mm_D1.6mm_P7.62mm_Horizontal" V 18980 10600 50  0001 C CNN
F 3 "" H 19050 10600 50  0001 C CNN
	1    19050 10600
	1    0    0    -1  
$EndComp
$Comp
L Device:R R32
U 1 1 5A852E5F
P 19500 10400
F 0 "R32" V 19293 10400 50  0000 C CNN
F 1 "10k" V 19384 10400 50  0000 C CNN
F 2 "Resistor_THT:R_Axial_DIN0204_L3.6mm_D1.6mm_P7.62mm_Horizontal" V 19430 10400 50  0001 C CNN
F 3 "" H 19500 10400 50  0001 C CNN
	1    19500 10400
	0    1    1    0   
$EndComp
$Comp
L Device:R R34
U 1 1 5A852E66
P 20100 9750
F 0 "R34" V 19893 9750 50  0000 C CNN
F 1 "100" V 19984 9750 50  0000 C CNN
F 2 "Resistor_THT:R_Axial_DIN0204_L3.6mm_D1.6mm_P7.62mm_Horizontal" V 20030 9750 50  0001 C CNN
F 3 "" H 20100 9750 50  0001 C CNN
	1    20100 9750
	0    1    1    0   
$EndComp
Wire Wire Line
	19950 9750 19900 9750
Wire Wire Line
	19650 10400 19900 10400
Wire Wire Line
	19900 10400 19900 9750
Connection ~ 19900 9750
Wire Wire Line
	19900 9750 19800 9750
Wire Wire Line
	19050 10400 19050 10450
Wire Wire Line
	19050 10400 19350 10400
Wire Wire Line
	19050 10400 19050 9850
Wire Wire Line
	19050 9850 19200 9850
Connection ~ 19050 10400
$Comp
L power:GND #PWR016
U 1 1 5A852E77
P 18700 10950
F 0 "#PWR016" H 18700 10700 50  0001 C CNN
F 1 "GND" H 18705 10777 50  0000 C CNN
F 2 "" H 18700 10950 50  0001 C CNN
F 3 "" H 18700 10950 50  0001 C CNN
	1    18700 10950
	1    0    0    -1  
$EndComp
Wire Wire Line
	18700 10950 18700 10850
Wire Wire Line
	19050 10750 19050 10850
Wire Wire Line
	19050 10850 18700 10850
Connection ~ 18700 10850
Wire Wire Line
	18700 10850 18700 10750
Wire Wire Line
	18700 10450 18700 10300
Wire Wire Line
	18700 9650 19200 9650
Wire Wire Line
	18400 10000 18400 10150
Wire Wire Line
	18400 10450 18400 10850
Wire Wire Line
	18400 10850 18700 10850
Wire Wire Line
	18550 10300 18700 10300
Connection ~ 18700 10300
Wire Wire Line
	18700 10300 18700 9650
Text GLabel 19400 9450 1    50   Input ~ 0
+15V
Text GLabel 19400 10050 3    50   Input ~ 0
-15V
Wire Wire Line
	17850 10000 18400 10000
Text Notes 11500 8400 0    50   ~ 0
2.5KHZ LOW PASS
Text Notes 16200 8700 0    50   ~ 0
95HZ HIGH PASS
Text Notes 14600 4200 0    50   ~ 0
HF OUTPUT BUFFER
Text Notes 20050 6650 0    50   ~ 0
MID OUTPUT BUFFER
Text Notes 15600 11000 0    50   ~ 0
95HZ LOW PASS
Text Notes 19000 11450 0    50   ~ 0
LF OUTPUT BUFFER
$Comp
L Device:C C29
U 1 1 5A90093B
P 5500 4700
F 0 "C29" H 5615 4746 50  0000 L CNN
F 1 "100n" H 5615 4655 50  0000 L CNN
F 2 "Capacitor_SMD:C_1206_3216Metric" H 5538 4550 50  0001 C CNN
F 3 "" H 5500 4700 50  0001 C CNN
	1    5500 4700
	1    0    0    -1  
$EndComp
$Comp
L Device:C C30
U 1 1 5A9009FB
P 5900 4700
F 0 "C30" H 6015 4746 50  0000 L CNN
F 1 "100n" H 6015 4655 50  0000 L CNN
F 2 "Capacitor_SMD:C_1206_3216Metric" H 5938 4550 50  0001 C CNN
F 3 "" H 5900 4700 50  0001 C CNN
	1    5900 4700
	1    0    0    -1  
$EndComp
$Comp
L Device:C C31
U 1 1 5A91C9D7
P 6350 4700
F 0 "C31" H 6465 4746 50  0000 L CNN
F 1 "100n" H 6465 4655 50  0000 L CNN
F 2 "Capacitor_SMD:C_1206_3216Metric" H 6388 4550 50  0001 C CNN
F 3 "" H 6350 4700 50  0001 C CNN
	1    6350 4700
	1    0    0    -1  
$EndComp
$Comp
L Device:C C32
U 1 1 5A91CAA3
P 6800 4700
F 0 "C32" H 6915 4746 50  0000 L CNN
F 1 "100n" H 6915 4655 50  0000 L CNN
F 2 "Capacitor_SMD:C_1206_3216Metric" H 6838 4550 50  0001 C CNN
F 3 "" H 6800 4700 50  0001 C CNN
	1    6800 4700
	1    0    0    -1  
$EndComp
$Comp
L Device:CP C34
U 1 1 5A93B6FE
P 7750 4350
F 0 "C34" H 7868 4396 50  0000 L CNN
F 1 "100uF/35V" H 7868 4305 50  0000 L CNN
F 2 "Capacitor_THT:CP_Radial_D8.0mm_P3.50mm" H 7788 4200 50  0001 C CNN
F 3 "" H 7750 4350 50  0001 C CNN
	1    7750 4350
	-1   0    0    1   
$EndComp
Connection ~ 7750 4550
Wire Wire Line
	7750 4550 8350 4550
$Comp
L Device:CP C35
U 1 1 5A809330
P 7750 5050
F 0 "C35" H 7868 5096 50  0000 L CNN
F 1 "100uF/35V" H 7868 5005 50  0000 L CNN
F 2 "Capacitor_THT:CP_Radial_D8.0mm_P3.50mm" H 7788 4900 50  0001 C CNN
F 3 "" H 7750 5050 50  0001 C CNN
	1    7750 5050
	-1   0    0    1   
$EndComp
Wire Wire Line
	7750 4500 7750 4550
Wire Wire Line
	7750 4900 7750 4850
Connection ~ 7750 4850
Wire Wire Line
	7750 4850 8350 4850
$Comp
L power:GND #PWR017
U 1 1 5A829375
P 7750 5200
F 0 "#PWR017" H 7750 4950 50  0001 C CNN
F 1 "GND" H 7755 5027 50  0000 C CNN
F 2 "" H 7750 5200 50  0001 C CNN
F 3 "" H 7750 5200 50  0001 C CNN
	1    7750 5200
	1    0    0    -1  
$EndComp
$Comp
L power:GND #PWR018
U 1 1 5A8299C2
P 7750 4200
F 0 "#PWR018" H 7750 3950 50  0001 C CNN
F 1 "GND" H 7755 4027 50  0000 C CNN
F 2 "" H 7750 4200 50  0001 C CNN
F 3 "" H 7750 4200 50  0001 C CNN
	1    7750 4200
	-1   0    0    1   
$EndComp
Wire Wire Line
	3450 4700 3450 4900
$Comp
L power:GND #PWR01
U 1 1 5A8A3A4A
P 3450 4900
F 0 "#PWR01" H 3450 4650 50  0001 C CNN
F 1 "GND" H 3455 4727 50  0000 C CNN
F 2 "" H 3450 4900 50  0001 C CNN
F 3 "" H 3450 4900 50  0001 C CNN
	1    3450 4900
	1    0    0    -1  
$EndComp
$Comp
L Connector_Generic:Conn_01x02 J2
U 1 1 5A8C5320
P 16350 4950
F 0 "J2" H 16270 4625 50  0000 C CNN
F 1 "HF" H 16270 4716 50  0000 C CNN
F 2 "Connector_Molex:Molex_KK-254_AE-6410-02A_1x02_P2.54mm_Vertical" H 16350 4950 50  0001 C CNN
F 3 "~" H 16350 4950 50  0001 C CNN
	1    16350 4950
	1    0    0    -1  
$EndComp
Wire Wire Line
	15800 4950 16150 4950
$Comp
L power:GND #PWR019
U 1 1 5A8D533A
P 16100 5200
F 0 "#PWR019" H 16100 4950 50  0001 C CNN
F 1 "GND" H 16105 5027 50  0000 C CNN
F 2 "" H 16100 5200 50  0001 C CNN
F 3 "" H 16100 5200 50  0001 C CNN
	1    16100 5200
	1    0    0    -1  
$EndComp
Wire Wire Line
	16100 5200 16100 5050
Wire Wire Line
	16100 5050 16150 5050
$Comp
L Connector_Generic:Conn_01x02 J4
U 1 1 5A8E50A0
P 21750 7500
F 0 "J4" H 21670 7175 50  0000 C CNN
F 1 "MID" H 21670 7266 50  0000 C CNN
F 2 "Connector_Molex:Molex_KK-254_AE-6410-02A_1x02_P2.54mm_Vertical" H 21750 7500 50  0001 C CNN
F 3 "~" H 21750 7500 50  0001 C CNN
	1    21750 7500
	1    0    0    -1  
$EndComp
Wire Wire Line
	21150 7500 21550 7500
$Comp
L power:GND #PWR020
U 1 1 5A8F5B2D
P 21500 7750
F 0 "#PWR020" H 21500 7500 50  0001 C CNN
F 1 "GND" H 21505 7577 50  0000 C CNN
F 2 "" H 21500 7750 50  0001 C CNN
F 3 "" H 21500 7750 50  0001 C CNN
	1    21500 7750
	1    0    0    -1  
$EndComp
Wire Wire Line
	21500 7750 21500 7600
Wire Wire Line
	21500 7600 21550 7600
$Comp
L Connector_Generic:Conn_01x02 J5
U 1 1 5A906478
P 20800 9750
F 0 "J5" H 20720 9425 50  0000 C CNN
F 1 "LF" H 20720 9516 50  0000 C CNN
F 2 "Connector_Molex:Molex_KK-254_AE-6410-02A_1x02_P2.54mm_Vertical" H 20800 9750 50  0001 C CNN
F 3 "~" H 20800 9750 50  0001 C CNN
	1    20800 9750
	1    0    0    -1  
$EndComp
$Comp
L power:GND #PWR021
U 1 1 5A90656C
P 20500 9950
F 0 "#PWR021" H 20500 9700 50  0001 C CNN
F 1 "GND" H 20505 9777 50  0000 C CNN
F 2 "" H 20500 9950 50  0001 C CNN
F 3 "" H 20500 9950 50  0001 C CNN
	1    20500 9950
	1    0    0    -1  
$EndComp
Wire Wire Line
	20500 9950 20500 9850
Wire Wire Line
	20500 9850 20600 9850
Wire Wire Line
	20600 9750 20250 9750
Wire Wire Line
	3250 4550 3850 4550
Wire Wire Line
	3250 4850 3850 4850
$Comp
L Device:R R35
U 1 1 5B76AA33
P 10400 5550
F 0 "R35" V 10193 5550 50  0000 C CNN
F 1 "2.2k" V 10284 5550 50  0000 C CNN
F 2 "Resistor_THT:R_Axial_DIN0204_L3.6mm_D1.6mm_P7.62mm_Horizontal" V 10330 5550 50  0001 C CNN
F 3 "" H 10400 5550 50  0001 C CNN
	1    10400 5550
	-1   0    0    1   
$EndComp
$Comp
L power:GND #PWR0101
U 1 1 5B76AB0D
P 10400 5700
F 0 "#PWR0101" H 10400 5450 50  0001 C CNN
F 1 "GND" H 10405 5527 50  0000 C CNN
F 2 "" H 10400 5700 50  0001 C CNN
F 3 "" H 10400 5700 50  0001 C CNN
	1    10400 5700
	1    0    0    -1  
$EndComp
$Comp
L Device:R R36
U 1 1 5B76B0ED
P 12400 5650
F 0 "R36" V 12193 5650 50  0000 C CNN
F 1 "2.2k" V 12284 5650 50  0000 C CNN
F 2 "Resistor_THT:R_Axial_DIN0204_L3.6mm_D1.6mm_P7.62mm_Horizontal" V 12330 5650 50  0001 C CNN
F 3 "" H 12400 5650 50  0001 C CNN
	1    12400 5650
	-1   0    0    1   
$EndComp
$Comp
L Device:R R39
U 1 1 5B76F8B2
P 15300 8000
F 0 "R39" V 15093 8000 50  0000 C CNN
F 1 "12k" V 15184 8000 50  0000 C CNN
F 2 "Resistor_THT:R_Axial_DIN0204_L3.6mm_D1.6mm_P7.62mm_Horizontal" V 15230 8000 50  0001 C CNN
F 3 "" H 15300 8000 50  0001 C CNN
	1    15300 8000
	-1   0    0    1   
$EndComp
$Comp
L Device:R R40
U 1 1 5B76FBEE
P 17300 8100
F 0 "R40" V 17093 8100 50  0000 C CNN
F 1 "12k" V 17184 8100 50  0000 C CNN
F 2 "Resistor_THT:R_Axial_DIN0204_L3.6mm_D1.6mm_P7.62mm_Horizontal" V 17230 8100 50  0001 C CNN
F 3 "" H 17300 8100 50  0001 C CNN
	1    17300 8100
	-1   0    0    1   
$EndComp
$Comp
L Amplifier_Operational:NE5532 U3
U 2 1 5A7FBE39
P 13050 5200
F 0 "U3" H 13200 5650 50  0000 L CNN
F 1 "NE5532" H 13050 5550 50  0000 L CNN
F 2 "Package_DIP:DIP-8_W7.62mm_LongPads" H 13050 5200 50  0001 C CNN
F 3 "http://www.ti.com/lit/ds/symlink/ne5532.pdf" H 13050 5200 50  0001 C CNN
	2    13050 5200
	1    0    0    -1  
$EndComp
$Comp
L Amplifier_Operational:NE5532 U3
U 1 1 5A7FBC0E
P 11050 5100
F 0 "U3" H 11200 5500 50  0000 L CNN
F 1 "NE5532" H 11100 5350 50  0000 L CNN
F 2 "Package_DIP:DIP-8_W7.62mm_LongPads" H 11050 5100 50  0001 C CNN
F 3 "http://www.ti.com/lit/ds/symlink/ne5532.pdf" H 11050 5100 50  0001 C CNN
	1    11050 5100
	1    0    0    -1  
$EndComp
$Comp
L Amplifier_Operational:NE5532 U3
U 3 1 5B77AC1A
P 5600 9550
F 0 "U3" H 5558 9596 50  0000 L CNN
F 1 "NE5532" H 5558 9505 50  0000 L CNN
F 2 "Package_DIP:DIP-8_W7.62mm_LongPads" H 5600 9550 50  0001 C CNN
F 3 "http://www.ti.com/lit/ds/symlink/ne5532.pdf" H 5600 9550 50  0001 C CNN
	3    5600 9550
	1    0    0    -1  
$EndComp
Text GLabel 5500 9850 3    50   Input ~ 0
-15V
$Comp
L Amplifier_Operational:NE5532 U5
U 3 1 5B77CFA8
P 6100 9550
F 0 "U5" H 6058 9596 50  0000 L CNN
F 1 "NE5532" H 6058 9505 50  0000 L CNN
F 2 "Package_DIP:DIP-8_W7.62mm_LongPads" H 6100 9550 50  0001 C CNN
F 3 "http://www.ti.com/lit/ds/symlink/ne5532.pdf" H 6100 9550 50  0001 C CNN
	3    6100 9550
	1    0    0    -1  
$EndComp
Text GLabel 6000 9250 1    50   Input ~ 0
+15V
Text GLabel 6000 9850 3    50   Input ~ 0
-15V
$Comp
L Amplifier_Operational:NE5532 U6
U 3 1 5B77E4ED
P 6600 9550
F 0 "U6" H 6558 9596 50  0000 L CNN
F 1 "NE5532" H 6558 9505 50  0000 L CNN
F 2 "Package_DIP:DIP-8_W7.62mm_LongPads" H 6600 9550 50  0001 C CNN
F 3 "http://www.ti.com/lit/ds/symlink/ne5532.pdf" H 6600 9550 50  0001 C CNN
	3    6600 9550
	1    0    0    -1  
$EndComp
$Comp
L Amplifier_Operational:NE5532 U7
U 3 1 5B77E7C0
P 7100 9550
F 0 "U7" H 7058 9596 50  0000 L CNN
F 1 "NE5532" H 7058 9505 50  0000 L CNN
F 2 "Package_DIP:DIP-8_W7.62mm_LongPads" H 7100 9550 50  0001 C CNN
F 3 "http://www.ti.com/lit/ds/symlink/ne5532.pdf" H 7100 9550 50  0001 C CNN
	3    7100 9550
	1    0    0    -1  
$EndComp
Text GLabel 6500 9850 3    50   Input ~ 0
-15V
Text GLabel 7000 9850 3    50   Input ~ 0
-15V
Text GLabel 6500 9250 1    50   Input ~ 0
+15V
Text GLabel 7000 9250 1    50   Input ~ 0
+15V
$Comp
L Switch:SW_DPDT_x2 SW1
U 1 1 5B7C6DAC
P 14150 7550
F 0 "SW1" H 14150 7835 50  0000 C CNN
F 1 "SW_DPDT_x2" H 14150 7744 50  0000 C CNN
F 2 "Button_Switch_THT:SW_CuK_JS202011CQN_DPDT_Straight" H 14150 7550 50  0001 C CNN
F 3 "" H 14150 7550 50  0001 C CNN
	1    14150 7550
	1    0    0    -1  
$EndComp
$Comp
L Switch:SW_DPDT_x2 SW1
U 2 1 5B7C6F56
P 18850 7750
F 0 "SW1" H 18850 8035 50  0000 C CNN
F 1 "SW_DPDT_x2" H 18850 7944 50  0000 C CNN
F 2 "Button_Switch_THT:SW_CuK_JS202011CQN_DPDT_Straight" H 18850 7750 50  0001 C CNN
F 3 "" H 18850 7750 50  0001 C CNN
	2    18850 7750
	-1   0    0    -1  
$EndComp
Wire Wire Line
	13700 7550 13950 7550
Wire Wire Line
	14450 7450 14350 7450
Wire Wire Line
	18650 7650 18350 7650
Wire Wire Line
	19050 7750 19300 7750
Wire Wire Line
	14350 7650 14350 8450
Wire Wire Line
	14350 8450 18650 8450
Wire Wire Line
	18650 8450 18650 7850
Wire Wire Line
	13700 7900 13700 9800
Wire Wire Line
	13700 9800 13800 9800
Connection ~ 13700 7900
Connection ~ 9350 7350
Connection ~ 3850 4550
Wire Wire Line
	3850 4550 4250 4550
Connection ~ 3850 4850
Wire Wire Line
	3850 4850 4250 4850
Connection ~ 4250 4850
Wire Wire Line
	4250 4850 4650 4850
Connection ~ 4250 4550
Wire Wire Line
	4250 4550 4650 4550
Connection ~ 4650 4550
Wire Wire Line
	4650 4550 5050 4550
Connection ~ 4650 4850
Wire Wire Line
	4650 4850 5050 4850
Connection ~ 5050 4850
Wire Wire Line
	5050 4850 5500 4850
Connection ~ 5050 4550
Wire Wire Line
	5050 4550 5500 4550
Connection ~ 5500 4550
Wire Wire Line
	5500 4550 5900 4550
Connection ~ 5500 4850
Wire Wire Line
	5500 4850 5900 4850
Connection ~ 5900 4850
Wire Wire Line
	5900 4850 6350 4850
Connection ~ 5900 4550
Wire Wire Line
	5900 4550 6350 4550
Connection ~ 6350 4550
Wire Wire Line
	6350 4550 6800 4550
Connection ~ 6350 4850
Wire Wire Line
	6350 4850 6800 4850
Connection ~ 6800 4550
Wire Wire Line
	6800 4550 7750 4550
Connection ~ 6800 4850
Wire Wire Line
	6800 4850 7750 4850
Text GLabel 14950 4650 1    50   Input ~ 0
+15V
Text GLabel 14950 5250 3    50   Input ~ 0
-15V
Text Notes 19650 10700 0    50   ~ 0
R32 = 50k for gain of 6
$EndSCHEMATC
